PLAY_SOUND sound_effects/combat/amnesia.mp3 0.0
CREATE_SPRITE images/amnesia.png 0.0 0.4 0.7 0.2 0.2
CREATE_SPRITE images/amnesia.png 0.20 0.1 0.6 0.2 0.2
CREATE_SPRITE images/amnesia.png 0.5 0.4 0.7 0.2 0.2
CREATE_SPRITE images/amnesia.png 0.7 0.1 0.6 0.2 0.2
HIDE_SPRITE 0 0.2
HIDE_SPRITE 1 0.4
HIDE_SPRITE 2 0.7
HIDE_SPRITE 3 0.9